waveforms/01.vcd
$date
	Sat Dec 28 14:34:18 2024
$end
$version
	Icarus Verilog
$end
$timescale
	1s
$end
$scope module top_tb $end
$var wire 42 ! sevenSegDisp [41:0] $end
$var reg 1 " clk $end
$var reg 1 # reset $end
$scope module dut $end
$var wire 1 " clk_I $end
$var wire 1 # reset_I $end
$var wire 32 $ x2_data [31:0] $end
$var wire 42 % sevenSegDisplay [41:0] $end
$var wire 2 & forwardRs2Sel [1:0] $end
$var wire 2 ' forwardRs2ForStoreSel [1:0] $end
$var wire 2 ( forwardRs1Sel [1:0] $end
$var wire 1 ) WB_reg_W_EN $end
$var wire 5 * WB_rdAddr [4:0] $end
$var wire 7 + WB_opCode [6:0] $end
$var wire 32 , WB_memReadData [31:0] $end
$var wire 32 - WB_immData [31:0] $end
$var wire 2 . WB_destRegWriteSel [1:0] $end
$var wire 32 / WB_currInstructionAddrPlus4 [31:0] $end
$var wire 32 0 WB_aluResult [31:0] $end
$var wire 32 1 MEM_rs2Data [31:0] $end
$var wire 1 2 MEM_reg_W_EN $end
$var wire 32 3 MEM_reData [31:0] $end
$var wire 5 4 MEM_rdAddr [4:0] $end
$var wire 7 5 MEM_opCode [6:0] $end
$var wire 1 6 MEM_memWriteEn $end
$var wire 1 7 MEM_memReadEnable $end
$var wire 32 8 MEM_immData [31:0] $end
$var wire 3 9 MEM_func3 [2:0] $end
$var wire 2 : MEM_destRegWriteSel [1:0] $end
$var wire 32 ; MEM_currInstructionAddrPlus4 [31:0] $end
$var wire 1 < MEM_branchTaken $end
$var wire 1 = MEM_branchInst $end
$var wire 32 > MEM_aluResult [31:0] $end
$var wire 1 ? IF_pcEnable $end
$var wire 1 @ IF_flushSignal $end
$var wire 32 A IF_currInstructionAddrPlus4 [31:0] $end
$var wire 32 B IF_currInstructionAddr [31:0] $end
$var wire 32 C IF_currInstruction [31:0] $end
$var wire 1 D IF_ID_registerEnable $end
$var wire 1 E ID_rfRs2Sel $end
$var wire 1 F ID_rfRs1Sel $end
$var wire 1 G ID_reg_w_en $end
$var wire 32 H ID_regRs2Data [31:0] $end
$var wire 32 I ID_regRs1Data [31:0] $end
$var wire 1 J ID_memWriteEn $end
$var wire 1 K ID_memReadEnable $end
$var wire 1 L ID_jumpTypeInst $end
$var wire 32 M ID_immData [31:0] $end
$var wire 2 N ID_destRegWriteSel [1:0] $end
$var wire 32 O ID_currInstructionAddrPlus4 [31:0] $end
$var wire 32 P ID_currInstructionAddr [31:0] $end
$var wire 32 Q ID_currInstruction [31:0] $end
$var wire 1 R ID_bubbleSelect $end
$var wire 1 S ID_branchInst $end
$var wire 1 T ID_aluSrcB $end
$var wire 1 U ID_aluSrcA $end
$var wire 1 V ID_aluOp $end
$var wire 1 W ID_ItypeInsts $end
$var wire 1 X ID_EX_enable $end
$var wire 5 Y EX_rs2Addr [4:0] $end
$var wire 5 Z EX_rs1Addr [4:0] $end
$var wire 1 [ EX_reg_W_EN $end
$var wire 32 \ EX_regRs2Data [31:0] $end
$var wire 32 ] EX_regRs1Data [31:0] $end
$var wire 7 ^ EX_opCode [6:0] $end
$var wire 1 _ EX_memWriteEn $end
$var wire 1 ` EX_memReadEnable $end
$var wire 1 a EX_jumpTypeInst $end
$var wire 32 b EX_immData [31:0] $end
$var wire 7 c EX_func7 [6:0] $end
$var wire 3 d EX_func3 [2:0] $end
$var wire 2 e EX_destWriteRegSelect [1:0] $end
$var wire 5 f EX_destRegAddr [4:0] $end
$var wire 32 g EX_currInstructionAddrPlus4 [31:0] $end
$var wire 32 h EX_currInstructionAddr [31:0] $end
$var wire 1 i EX_bubbleSelect $end
$var wire 1 j EX_branchTaken $end
$var wire 1 k EX_branchInst $end
$var wire 32 l EX_aluSrcBData [31:0] $end
$var wire 1 m EX_aluSrcB $end
$var wire 32 n EX_aluSrcAData [31:0] $end
$var wire 1 o EX_aluSrcA $end
$var wire 32 p EX_aluResult [31:0] $end
$var wire 1 q EX_aluOp $end
$var wire 4 r EX_aluFunc [3:0] $end
$var wire 1 s EX_ItypeInst $end
$var reg 1 t EX_memReadEnableAfteFlush $end
$var reg 1 u EX_reg_W_EN_AfterFlush $end
$var reg 1 v ID_memReadEnableAfterFlush $end
$var reg 1 w ID_regWriteAfterFlush $end
$var reg 32 x ID_rs1AfterForwarding [31:0] $end
$var reg 32 y ID_rs2AfterForwarding [31:0] $end
$var reg 32 z IF_currInstructionAfterFlushing [31:0] $end
$var reg 32 { IF_nextInstructionAddr [31:0] $end
$var reg 32 | Rs1AfterForwarding [31:0] $end
$var reg 32 } Rs2AfterForwarding [31:0] $end
$var reg 32 ~ WB_rdDataWriteBack [31:0] $end
$var reg 32 !" rs2DataForStoreAfterForwarding [31:0] $end
$scope module ALU $end
$var wire 32 "" and_bitwise [31:0] $end
$var wire 32 #" or_bitwise [31:0] $end
$var wire 32 $" regA_I [31:0] $end
$var wire 32 %" regB_I [31:0] $end
$var wire 32 &" xor_bitwise [31:0] $end
$var wire 32 '" sum [31:0] $end
$var wire 32 (" srl [31:0] $end
$var wire 32 )" sra [31:0] $end
$var wire 32 *" sll [31:0] $end
$var wire 32 +" diff [31:0] $end
$var wire 4 ," aluOP_I [3:0] $end
$var reg 32 -" result_O [31:0] $end
$upscope $end
$scope module ALUCTRL $end
$var wire 7 ." func7_I [6:0] $end
$var wire 3 /" func3_I [2:0] $end
$var wire 1 q aluOp_I $end
$var wire 1 s Itype_I $end
$var reg 4 0" RtypeFunc [3:0] $end
$var reg 4 1" aluFunc_O [3:0] $end
$upscope $end
$scope module B2SS0 $end
$var wire 4 2" bin_I [3:0] $end
$var reg 7 3" ss_O [6:0] $end
$upscope $end
$scope module B2SS1 $end
$var wire 4 4" bin_I [3:0] $end
$var reg 7 5" ss_O [6:0] $end
$upscope $end
$scope module B2SS2 $end
$var wire 4 6" bin_I [3:0] $end
$var reg 7 7" ss_O [6:0] $end
$upscope $end
$scope module B2SS3 $end
$var wire 4 8" bin_I [3:0] $end
$var reg 7 9" ss_O [6:0] $end
$upscope $end
$scope module B2SS4 $end
$var wire 4 :" bin_I [3:0] $end
$var reg 7 ;" ss_O [6:0] $end
$upscope $end
$scope module B2SS5 $end
$var wire 4 <" bin_I [3:0] $end
$var reg 7 =" ss_O [6:0] $end
$upscope $end
$scope module BRANCHDECIDE $end
$var wire 32 >" rs1Data [31:0] $end
$var wire 32 ?" rs2Data [31:0] $end
$var wire 1 a jumpTypeInstFlag $end
$var wire 3 @" func3 [2:0] $end
$var reg 1 j branchTaken $end
$upscope $end
$scope module CONTROL $end
$var wire 1 W ItypeInsts_O $end
$var wire 1 V aluOp_O $end
$var wire 1 U aluSrcA_O $end
$var wire 1 T aluSrcB_O $end
$var wire 1 S branchInst_O $end
$var wire 1 L jumpTypeInst_O $end
$var wire 1 J memWriteEn_O $end
$var wire 7 A" opCode_I [6:0] $end
$var wire 1 G reg_W_EN_O $end
$var wire 1 B" reg_W_EN_when_zero $end
$var wire 1 K memReadEnable_O $end
$var wire 2 C" destRegWriteSel_O [1:0] $end
$upscope $end
$scope module DATAMEM $end
$var wire 1 " clk $end
$var wire 32 D" currMemData [31:0] $end
$var wire 32 E" wrData_I [31:0] $end
$var wire 1 6 memWriteEn_I $end
$var wire 3 F" memReadSel_I [2:0] $end
$var wire 1 7 memReadEnable_I $end
$var wire 16 G" currHalfWord [15:0] $end
$var wire 32 H" address_I [31:0] $end
$var reg 8 I" currByte [7:0] $end
$var reg 32 J" reData [31:0] $end
$upscope $end
$scope module DFF $end
$var wire 32 K" D [31:0] $end
$var wire 1 " clk $end
$var wire 1 # reset $end
$var wire 1 ? enable $end
$var reg 32 L" Q [31:0] $end
$upscope $end
$scope module EX_MEM_REGISTER $end
$var wire 32 M" aluResult_I_D [31:0] $end
$var wire 1 j branchTaken_I_D $end
$var wire 1 " clk_I $end
$var wire 1 N" enable_I $end
$var wire 1 # reset_I $end
$var wire 32 O" rs2Data_I_D [31:0] $end
$var wire 1 [ reg_W_En_I_D $end
$var wire 5 P" rdAddr_I_D [4:0] $end
$var wire 7 Q" opCode_I_D [6:0] $end
$var wire 1 _ memWriteEn_I_D $end
$var wire 1 ` memReadEnable_I_D $end
$var wire 32 R" imm_I_D [31:0] $end
$var wire 3 S" func3_I_D [2:0] $end
$var wire 2 T" destRegWriteSel_I_D [1:0] $end
$var wire 32 U" currInstructionAddrPlus4_I_D [31:0] $end
$var wire 1 k branchTypeInst_I_D $end
$var reg 32 V" aluResult_O_Q [31:0] $end
$var reg 1 < branchTaken_O_Q $end
$var reg 1 = branchTypeInst_O_Q $end
$var reg 32 W" currInstructionAddrPlus4_O_Q [31:0] $end
$var reg 2 X" destRegWriteSel_O_Q [1:0] $end
$var reg 3 Y" func3_O_Q [2:0] $end
$var reg 32 Z" imm_O_Q [31:0] $end
$var reg 1 7 memReadEnable_O_Q $end
$var reg 1 6 memWriteEn_O_Q $end
$var reg 7 [" opCode_O_Q [6:0] $end
$var reg 5 \" rdAddr_O_Q [4:0] $end
$var reg 1 2 reg_W_En_O_Q $end
$var reg 32 ]" rs2Data_O_Q [31:0] $end
$upscope $end
$scope module FOUR_ADDER $end
$var wire 32 ^" B_I [31:0] $end
$var wire 32 _" C_O [31:0] $end
$upscope $end
$scope module FWDUNIT_2 $end
$var wire 7 `" ID_opCode [6:0] $end
$var wire 5 a" ID_rs1Addr [4:0] $end
$var wire 5 b" ID_rs2Addr [4:0] $end
$var wire 1 c" MEM_forwardRs1_toEX $end
$var wire 1 d" MEM_forwardRs2_toEX $end
$var wire 1 e" MEM_forwardRs2_toMEM $end
$var wire 7 f" MEM_opCode [6:0] $end
$var wire 5 g" MEM_rdAddr [4:0] $end
$var wire 1 2 MEM_reg_W_En $end
$var wire 1 h" WB_forwardRs1_toEX $end
$var wire 1 i" WB_forwardRs1_toID $end
$var wire 1 j" WB_forwardRs2_toEX $end
$var wire 1 k" WB_forwardRs2_toID $end
$var wire 1 l" WB_forwardRs2_toMEM $end
$var wire 2 m" forwardRs2Src [1:0] $end
$var wire 1 E forwardRFSrcB $end
$var wire 1 F forwardRFSrcA $end
$var wire 2 n" forwardALUSrcB [1:0] $end
$var wire 2 o" forwardALUSrcA [1:0] $end
$var wire 1 ) WB_reg_W_En $end
$var wire 5 p" WB_rdAddr [4:0] $end
$var wire 7 q" WB_opCode [6:0] $end
$var wire 5 r" EX_rs2Addr [4:0] $end
$var wire 5 s" EX_rs1Addr [4:0] $end
$var wire 7 t" EX_opCode [6:0] $end
$upscope $end
$scope module HAZARD_DETECTOR $end
$var wire 1 t EX_memReadEnable $end
$var wire 7 u" ID_opCode_I [6:0] $end
$var wire 5 v" ID_rs1Addr [4:0] $end
$var wire 5 w" ID_rs2Addr [4:0] $end
$var wire 1 x" branch_I $end
$var wire 1 y" regEqualFlag $end
$var wire 1 z" opCodeFlag $end
$var wire 5 {" EX_rdAddr [4:0] $end
$var reg 1 i EX_bubbleSelect $end
$var reg 1 X ID_EX_pipelineRegisterEnable $end
$var reg 1 R ID_bubbleSelect $end
$var reg 1 D IF_ID_pipelineRegisterEnable $end
$var reg 1 @ IF_flush $end
$var reg 1 ? IF_pcWriteEnable $end
$upscope $end
$scope module ID_EX_REGISTER $end
$var wire 5 |" ID_EX_rdAddr_I_D [4:0] $end
$var wire 32 }" ID_EX_rs1_I_D [31:0] $end
$var wire 32 ~" ID_EX_rs2_I_D [31:0] $end
$var wire 1 W ItypeInsts_I_D $end
$var wire 1 V aluOp_I_D $end
$var wire 1 U aluSrcA_I_D $end
$var wire 1 T aluSrcB_I_D $end
$var wire 1 S branchInst_I_D $end
$var wire 1 " clk_I $end
$var wire 2 !# destRegWriteSel_I_D [1:0] $end
$var wire 1 X enable_I $end
$var wire 3 "# func3_I_D [2:0] $end
$var wire 7 ## func7_I_D [6:0] $end
$var wire 1 L jumpTypeInst_I_D $end
$var wire 1 v memReadEnable_I_D $end
$var wire 1 J memWriteEn_I_D $end
$var wire 7 $# opCode_I_D [6:0] $end
$var wire 1 w reg_W_EN_I_D $end
$var wire 1 # reset_I $end
$var wire 5 %# rs1Addr_I_D [4:0] $end
$var wire 5 &# rs2Addr_I_D [4:0] $end
$var wire 32 '# imm_I_D [31:0] $end
$var wire 32 (# currInstructionAddrPlus4_I_D [31:0] $end
$var reg 5 )# ID_EX_rdAddr_O_Q [4:0] $end
$var reg 32 *# ID_EX_rs1_O_Q [31:0] $end
$var reg 32 +# ID_EX_rs2_O_Q [31:0] $end
$var reg 1 s ItypeInsts_O_Q $end
$var reg 1 q aluOp_O_Q $end
$var reg 1 o aluSrcA_O_Q $end
$var reg 1 m aluSrcB_O_Q $end
$var reg 1 k branchInst_O_Q $end
$var reg 32 ,# currInstructionAddrPlus4_O_Q [31:0] $end
$var reg 2 -# destRegWriteSel_O_Q [1:0] $end
$var reg 3 .# func3_O_Q [2:0] $end
$var reg 7 /# func7_O_Q [6:0] $end
$var reg 32 0# imm_O_Q [31:0] $end
$var reg 1 a jumpTypeInst_O_Q $end
$var reg 1 ` memReadEnable_O_Q $end
$var reg 1 _ memWriteEn_O_Q $end
$var reg 7 1# opCode_O_Q [6:0] $end
$var reg 1 [ reg_W_EN_O_Q $end
$var reg 5 2# rs1Addr_O_Q [4:0] $end
$var reg 5 3# rs2Addr_O_Q [4:0] $end
$upscope $end
$scope module IF_ID_REGISTER $end
$var wire 1 " clk_I $end
$var wire 32 4# currInstructionAddrPlus4_D_I [31:0] $end
$var wire 32 5# currInstruction_D_I [31:0] $end
$var wire 1 D enable_I $end
$var wire 32 6# pcAddr_D_I [31:0] $end
$var wire 1 # reset_I $end
$var reg 32 7# currInstructionAddrPlus4_Q_O [31:0] $end
$var reg 32 8# currInstruction_Q_O [31:0] $end
$var reg 32 9# pcAddr_Q_O [31:0] $end
$upscope $end
$scope module IMMGEN $end
$var wire 32 :# imm_O [31:0] $end
$var wire 32 ;# instruction_I [31:0] $end
$var wire 7 <# opCode [6:0] $end
$var wire 3 =# instSel [2:0] $end
$var reg 32 ># immIntermediate [31:0] $end
$upscope $end
$scope module INST_MEM $end
$var wire 30 ?# inst_addr [29:0] $end
$var reg 32 @# inst [31:0] $end
$upscope $end
$scope module MEM_WB_REGISTER $end
$var wire 32 A# aluResult_I_D [31:0] $end
$var wire 1 " clk_I $end
$var wire 32 B# currInstructionAddrPlus4_I_D [31:0] $end
$var wire 2 C# destRegWriteSel_I_D [1:0] $end
$var wire 1 D# enable_I $end
$var wire 32 E# imm_I_D [31:0] $end
$var wire 32 F# memReadData_I_D [31:0] $end
$var wire 7 G# opCode_I_D [6:0] $end
$var wire 5 H# rdAddr_I_D [4:0] $end
$var wire 1 2 reg_W_EN_I_D $end
$var wire 1 # reset_I $end
$var reg 32 I# aluResult_O_Q [31:0] $end
$var reg 32 J# currInstructionAddrPlus4_O_Q [31:0] $end
$var reg 2 K# destRegWriteSel_O_Q [1:0] $end
$var reg 32 L# imm_O_Q [31:0] $end
$var reg 32 M# memReadData_O_Q [31:0] $end
$var reg 7 N# opCode_O_Q [6:0] $end
$var reg 5 O# rdAddr_O_Q [4:0] $end
$var reg 1 ) reg_W_EN_O_Q $end
$upscope $end
$scope module REGFILE $end
$var wire 5 P# addrRegA_I [4:0] $end
$var wire 5 Q# addrRegB_I [4:0] $end
$var wire 1 " clk_I $end
$var wire 32 R# destRegWrite_I [31:0] $end
$var wire 5 S# destReg_I [4:0] $end
$var wire 1 T# r_en_I $end
$var wire 1 ) w_en_I $end
$var wire 24 U# x2_data [23:0] $end
$var reg 32 V# dataRegA_O [31:0] $end
$var reg 32 W# dataRegB_O [31:0] $end
$upscope $end
$upscope $end
$upscope $end
$enddefinitions $end
$comment Show the parameter values. $end
$dumpall
$end
#0
$dumpvars
b0 W#
b0 V#
bx U#
1T#
bx S#
bx R#
bx Q#
bx P#
bx O#
bx N#
bx M#
bx L#
bx K#
bx J#
bx I#
bx H#
bx G#
bx F#
bx E#
1D#
bx C#
bx B#
bx A#
bx @#
bx ?#
bx >#
bx =#
bx <#
bx ;#
bx :#
bx 9#
bx 8#
bx 7#
bx 6#
bx 5#
bx 4#
bx 3#
bx 2#
bx 1#
bx 0#
bx /#
bx .#
bx -#
bx ,#
bx +#
bx *#
bx )#
bx (#
bx '#
bx &#
bx %#
bx $#
bx ##
bx "#
bx !#
b0 ~"
b0 }"
bx |"
bx {"
xz"
xy"
xx"
bx w"
bx v"
bx u"
bx t"
bx s"
bx r"
bx q"
bx p"
bx o"
bx n"
bx m"
xl"
xk"
xj"
xi"
xh"
bx g"
bx f"
xe"
xd"
xc"
bx b"
bx a"
bx `"
bx _"
bx ^"
bx ]"
bx \"
bx ["
bx Z"
bx Y"
bx X"
bx W"
bx V"
bx U"
bx T"
bx S"
bx R"
bx Q"
bx P"
bx O"
1N"
bx M"
bx L"
bx K"
bx J"
bx I"
bx H"
bx G"
bx F"
bx E"
bx D"
bx C"
xB"
bx A"
bx @"
bx ?"
bx >"
bx ="
bx <"
bx ;"
bx :"
bx 9"
bx 8"
bx 7"
bx 6"
bx 5"
bx 4"
bx 3"
bx 2"
bx 1"
bx 0"
bx /"
bx ."
bx -"
bx ,"
bx +"
bx *"
bx )"
bx ("
bx '"
bx &"
bx %"
bx $"
bx #"
bx ""
bx !"
bx ~
bx }
bx |
bx {
bx z
b0 y
b0 x
xw
xv
xu
xt
xs
bx r
xq
bx p
xo
bx n
xm
bx l
xk
xj
xi
bx h
bx g
bx f
bx e
bx d
bx c
bx b
xa
x`
x_
bx ^
bx ]
bx \
x[
bx Z
bx Y
xX
xW
xV
xU
xT
xS
xR
bx Q
bx P
bx O
bx N
bx M
xL
xK
xJ
b0 I
b0 H
xG
xF
xE
xD
bx C
bx B
bx A
x@
x?
bx >
x=
x<
bx ;
bx :
bx 9
bx 8
x7
x6
bx 5
bx 4
bx 3
x2
bx 1
bx 0
bx /
bx .
bx -
bx ,
bx +
bx *
x)
bx (
bx '
bx &
bx %
b0xxxxxxxxxxxxxxxxxxxxxxxx $
1#
1"
bx !
$end
#5
b0 (
b0 o"
0c"
0F
0E
0W
1T
0J
0h"
b0 &
b0 n"
0i"
0k"
0L
1B"
0U
0V
b1 N
b1 C"
b1 !#
0S
b10011 z
b10011 5#
b0 '
b0 m"
0j"
0d"
0@
0i
1X
0R
1D
1?
b0 ""
b0 #"
b0 &"
b0 p
b0 -"
b0 M"
b0 *"
b0 )"
b0 ("
b1 =#
1z"
1y"
0w
0v
0G
b10011 C
b10011 @#
0l"
b0 ~
b0 R#
0e"
0x"
0u
0t
b0 '"
b0 +"
b0 n
b0 $"
b0 r
b0 ,"
b0 1"
b0 0"
1j
b0 l
b0 %"
b0 !"
b0 O"
b0 }
b0 ?"
b0 |
b0 >"
b0 M
b0 '#
b0 :#
b0 >#
b0 <#
b0 u"
b0 w"
b0 v"
b0 `"
b0 b"
b0 a"
b0 &#
b0 %#
b0 $#
b0 |"
b0 ##
b0 "#
b0 Q#
b0 P#
0K
b0 A"
b100 {
b100 K"
b0 ?#
b0 +
b0 q"
b0 N#
b0 *
b0 p"
b0 O#
b0 S#
b0 -
b0 L#
b0 /
b0 J#
b0 .
b0 K#
0)
b0 0
b0 I#
b0 ,
b0 M#
07
b0 5
b0 ["
b0 f"
b0 G#
b0 4
b0 \"
b0 g"
b0 H#
02
06
b0 :
b0 X"
b0 C#
0=
0<
b0 8
b0 Z"
b0 E#
b0 ;
b0 W"
b0 B#
b0 9
b0 F"
b0 Y"
b0 1
b0 E"
b0 ]"
b0 >
b0 H"
b0 V"
b0 A#
0`
b0 Y
b0 r"
b0 3#
b0 Z
b0 s"
b0 2#
b0 ^
b0 Q"
b0 t"
b0 1#
b0 e
b0 T"
b0 -#
0a
0s
0k
0_
0q
0o
0m
0[
b11111111111111111111111111111100 h
b0 g
b0 U"
b0 ,#
b0 f
b0 P"
b0 {"
b0 )#
b0 c
b0 ."
b0 /#
b0 d
b0 /"
b0 @"
b0 S"
b0 .#
b0 b
b0 R"
b0 0#
b0 \
b0 +#
b0 ]
b0 *#
b0 O
b0 (#
b0 7#
b0 Q
b0 8#
b0 ;#
b0 P
b0 9#
b100 A
b100 _"
b100 4#
b0 B
b0 L"
b0 ^"
b0 6#
0#
0"
#10
b0 N
b0 C"
b0 !#
1W
1w
1V
1G
b1 ?#
b10011 <#
b10011 u"
b10011 `"
b10011 $#
b10011 A"
b1000 {
b1000 K"
b1000 A
b1000 _"
b1000 4#
b100 B
b100 L"
b100 ^"
b100 6#
b100 O
b100 (#
b100 7#
b10011 Q
b10011 8#
b10011 ;#
b1 e
b1 T"
b1 -#
1m
1<
bx ,
bx M#
1#
1"
#15
0"
#20
b1010010011 z
b1010010011 5#
b1010010011 C
b1010010011 @#
1u
b1100 {
b1100 K"
b10 ?#
b1 :
b1 X"
b1 C#
b10011 ^
b10011 Q"
b10011 t"
b10011 1#
b0 e
b0 T"
b0 -#
1s
1q
1[
b0 h
b100 g
b100 U"
b100 ,#
b1000 O
b1000 (#
b1000 7#
b100 P
b100 9#
b1100 A
b1100 _"
b1100 4#
b1000 B
b1000 L"
b1000 ^"
b1000 6#
1"
#25
0"
#30
b100000000001100010011 z
b100000000001100010011 5#
b100000000001100010011 C
b100000000001100010011 @#
b10000 {
b10000 K"
b11 ?#
b101 |"
bx ~
bx R#
b10000 A
b10000 _"
b10000 4#
b1100 B
b1100 L"
b1100 ^"
b1100 6#
b1100 O
b1100 (#
b1100 7#
b1010010011 Q
b1010010011 8#
b1010010011 ;#
b1000 P
b1000 9#
b100 h
b1000 g
b1000 U"
b1000 ,#
b10011 5
b10011 ["
b10011 f"
b10011 G#
12
b0 :
b0 X"
b0 C#
b100 ;
b100 W"
b100 B#
b1 .
b1 K#
1"
#35
0"
#40
b11000101000001010110011 z
b11000101000001010110011 5#
bx y
bx ~"
bx H
bx W#
b11000101000001010110011 C
b11000101000001010110011 @#
b0 ~
b0 R#
0y"
b1 M
b1 '#
b1 :#
b1 >#
b1 w"
b1 b"
b1 &#
b110 |"
b1 Q#
b10100 {
b10100 K"
b100 ?#
b10011 +
b10011 q"
b10011 N#
b100 /
b100 J#
b0 .
b0 K#
1)
b1000 ;
b1000 W"
b1000 B#
b1000 h
b1100 g
b1100 U"
b1100 ,#
b101 f
b101 P"
b101 {"
b101 )#
b10000 O
b10000 (#
b10000 7#
b100000000001100010011 Q
b100000000001100010011 8#
b100000000001100010011 ;#
b1100 P
b1100 9#
b10100 A
b10100 _"
b10100 4#
b10000 B
b10000 L"
b10000 ^"
b10000 6#
1"
#45
0"
#50
0W
b0 =#
0T
b101000001100110011 z
b101000001100110011 5#
bx x
bx }"
b101000001100110011 C
b101000001100110011 @#
1y"
bx I
bx V#
b1 #"
b1 &"
b1 p
b1 -"
b1 M"
xj
b11000 {
b11000 K"
b101 ?#
b0 M
b0 '#
b0 :#
b0 >#
b110011 <#
b110011 u"
b110 w"
b101 v"
b110011 `"
b110 b"
b101 a"
b110 &#
b101 %#
b110011 $#
b101 |"
b110 Q#
b101 P#
b110011 A"
b1 '"
b11111111111111111111111111111111 +"
b1 l
b1 %"
bx !"
bx O"
bx }
bx ?"
b11000 A
b11000 _"
b11000 4#
b10100 B
b10100 L"
b10100 ^"
b10100 6#
b10100 O
b10100 (#
b10100 7#
b11000101000001010110011 Q
b11000101000001010110011 8#
b11000101000001010110011 ;#
b10000 P
b10000 9#
b1 Y
b1 r"
b1 3#
b1100 h
b10000 g
b10000 U"
b10000 ,#
b110 f
b110 P"
b110 {"
b110 )#
b1 b
b1 R"
b1 0#
bx \
bx +#
b101 4
b101 \"
b101 g"
b101 H#
b1100 ;
b1100 W"
b1100 B#
b1000 /
b1000 J#
1"
#55
0"
#60
0j
b1 (
b1 o"
b0 x
b0 }"
1F
1h"
b1 }
b1 ?"
1i"
b10 &
b10 n"
b0 y
b0 ~"
b11111110000000101001110011100011 z
b11111110000000101001110011100011 5#
1d"
b0 ""
b1 #"
b1 &"
b1 p
b1 -"
b1 M"
b0 *"
b0 )"
b0 ("
b0 n
b0 $"
b0 H
b0 W#
b11111110000000101001110011100011 C
b11111110000000101001110011100011 @#
b1 '"
b11111111111111111111111111111111 +"
b1 l
b1 %"
b0 |
b0 >"
b0 w"
b0 b"
b0 &#
b110 |"
b0 Q#
b11100 {
b11100 K"
b110 ?#
b101 *
b101 p"
b101 O#
b101 S#
b1100 /
b1100 J#
b110 4
b110 \"
b110 g"
b110 H#
x<
b1 8
b1 Z"
b1 E#
b10000 ;
b10000 W"
b10000 B#
bx 1
bx E"
bx ]"
b1 >
b1 H"
b1 V"
b1 A#
b110 Y
b110 r"
b110 3#
b101 Z
b101 s"
b101 2#
b110011 ^
b110011 Q"
b110011 t"
b110011 1#
0s
0m
b10000 h
b10100 g
b10100 U"
b10100 ,#
b101 f
b101 P"
b101 {"
b101 )#
b0 b
b0 R"
b0 0#
bx ]
bx *#
b11000 O
b11000 (#
b11000 7#
b101000001100110011 Q
b101000001100110011 8#
b101000001100110011 ;#
b10100 P
b10100 9#
b11100 A
b11100 _"
b11100 4#
b11000 B
b11000 L"
b11000 ^"
b11000 6#
1"
#65
0"
#70
b1 )"
b1 ("
b11111111111111111111111111111000 M
b11111111111111111111111111111000 '#
b11111111111111111111111111111000 :#
b11111111111111111111111111111000 >#
0w
b0 l
b0 %"
b11 =#
1U
1T
0G
b10 (
b10 o"
b0 }
b0 ?"
0F
b1000000 3"
b1000000 5"
b1000000 7"
b1000000 9"
b1000000 ;"
b100000010000001000000100000010000001000000 !
b100000010000001000000100000010000001000000 %
b1000000 ="
b10011 z
b10011 5#
0B"
0V
1S
b0 ""
b1 &"
b1 p
b1 -"
b1 M"
1c"
b0 &
b0 n"
0i"
0h"
b0 2"
b0 4"
b0 6"
b0 8"
b0 :"
b0 <"
b10011 C
b10011 @#
b1 '"
b1 +"
b1 *"
b1 n
b1 $"
0j
0d"
b0 x
b0 }"
b0 I
b0 V#
b0 $
b0 U#
b111 ?#
b1100011 <#
b1100011 u"
b1100011 `"
b1100011 $#
b11001 |"
b1111111 ##
b1 "#
b1100011 A"
0y"
b0 !"
b0 O"
b1 |
b1 >"
b100000 {
b100000 K"
b1 ~
b1 R#
b100000 A
b100000 _"
b100000 4#
b11100 B
b11100 L"
b11100 ^"
b11100 6#
b11100 O
b11100 (#
b11100 7#
b11111110000000101001110011100011 Q
b11111110000000101001110011100011 8#
b11111110000000101001110011100011 ;#
b11000 P
b11000 9#
b0 Y
b0 r"
b0 3#
b10100 h
b11000 g
b11000 U"
b11000 ,#
b110 f
b110 P"
b110 {"
b110 )#
b0 \
b0 +#
b0 ]
b0 *#
b110011 5
b110011 ["
b110011 f"
b110011 G#
b101 4
b101 \"
b101 g"
b101 H#
0<
b0 8
b0 Z"
b0 E#
b10100 ;
b10100 W"
b10100 B#
b110 *
b110 p"
b110 O#
b110 S#
b1 -
b1 L#
b10000 /
b10000 J#
b1 0
b1 I#
1"
#75
0"
#80
1W
1w
b1 |
b1 >"
1G
b1 (
b1 o"
b1 =#
0U
1h"
0c"
1B"
1V
0S
b11000 ""
b11111111111111111111111111111000 #"
b11111111111111111111111111100000 &"
b10000 p
b10000 -"
b10000 M"
b11000000000000000000000000000 *"
b0 )"
b0 ("
b11000 n
b11000 $"
b10000 '"
b100000 +"
b11111111111111111111111111111000 l
b11111111111111111111111111111000 %"
0u
b10 0"
1j
b0 M
b0 '#
b0 :#
b0 >#
b10011 <#
b10011 u"
b0 v"
b10011 `"
b0 a"
b0 %#
b10011 $#
b0 |"
b0 ##
b0 "#
b0 P#
b10011 A"
b100100 {
b100100 K"
b1000 ?#
b110011 +
b110011 q"
b110011 N#
b101 *
b101 p"
b101 O#
b101 S#
b0 -
b0 L#
b10100 /
b10100 J#
b110 4
b110 \"
b110 g"
b110 H#
b11000 ;
b11000 W"
b11000 B#
b0 1
b0 E"
b0 ]"
b1100011 ^
b1100011 Q"
b1100011 t"
b1100011 1#
1k
0q
1o
1m
0[
b11000 h
b11100 g
b11100 U"
b11100 ,#
b11001 f
b11001 P"
b11001 {"
b11001 )#
b1111111 c
b1111111 ."
b1111111 /#
b1 d
b1 /"
b1 @"
b1 S"
b1 .#
b11111111111111111111111111111000 b
b11111111111111111111111111111000 R"
b11111111111111111111111111111000 0#
b100000 O
b100000 (#
b100000 7#
b10011 Q
b10011 8#
b10011 ;#
b11100 P
b11100 9#
b100100 A
b100100 _"
b100100 4#
b100000 B
b100000 L"
b100000 ^"
b100000 6#
1"
#85
0"
