waveforms/Running_Single_Cycle_Code.vcd
$date
	Tue Nov 26 18:14:32 2024
$end
$version
	Icarus Verilog
$end
$timescale
	1s
$end
$scope module top_tb $end
$var wire 1 ! currInst_O $end
$var wire 1 " PC_O $end
$var reg 1 # clk $end
$var reg 1 $ reset $end
$scope module dut $end
$var wire 1 # clk_I $end
$var wire 1 % read_enable $end
$var wire 1 $ reset_I $end
$var wire 1 & write_enable_memory $end
$var wire 1 ' write_enable $end
$var wire 32 ( regBData [31:0] $end
$var wire 32 ) regAData [31:0] $end
$var wire 32 * nextInstructionAddr [31:0] $end
$var wire 32 + memReadData [31:0] $end
$var wire 1 , jTypeInsts $end
$var wire 32 - immData [31:0] $end
$var wire 1 . iTypeInsts $end
$var wire 2 / destRegWriteDataSel [1:0] $end
$var wire 1 ! currInstruction_O $end
$var wire 32 0 currInstructionAddrPlus4 [31:0] $end
$var wire 32 1 currInstructionAddr [31:0] $end
$var wire 32 2 currInstruction [31:0] $end
$var wire 1 3 branchTypeInst $end
$var wire 1 4 branchTaken $end
$var wire 1 5 aluSrcA $end
$var wire 1 6 aluSrc $end
$var wire 1 7 aluOperation $end
$var wire 4 8 aluFunction [3:0] $end
$var wire 1 " PC_O $end
$var wire 32 9 ALUresult [31:0] $end
$var wire 32 : ALUOpB [31:0] $end
$var wire 32 ; ALUOpA [31:0] $end
$var reg 32 < destRegWriteData [31:0] $end
$scope module A1 $end
$var wire 32 = and_bitwise [31:0] $end
$var wire 32 > or_bitwise [31:0] $end
$var wire 32 ? regA_I [31:0] $end
$var wire 32 @ regB_I [31:0] $end
$var wire 32 A xor_bitwise [31:0] $end
$var wire 32 B sum [31:0] $end
$var wire 32 C srl [31:0] $end
$var wire 32 D sra [31:0] $end
$var wire 32 E sll [31:0] $end
$var wire 32 F diff [31:0] $end
$var wire 4 G aluOP_I [3:0] $end
$var reg 32 H result_O [31:0] $end
$upscope $end
$scope module BranchUnit $end
$var wire 3 I func3 [2:0] $end
$var wire 32 J rs2Data [31:0] $end
$var wire 32 K rs1Data [31:0] $end
$var wire 1 , jumpTypeInstFlag $end
$var reg 1 4 branchTaken $end
$upscope $end
$scope module C1 $end
$var wire 1 . ItypeInsts_O $end
$var wire 1 7 aluOp_O $end
$var wire 1 5 aluSrcA_O $end
$var wire 1 6 aluSrcB_O $end
$var wire 1 3 branchInst_O $end
$var wire 1 , jumpTypeInst_O $end
$var wire 1 & memWriteEn_O $end
$var wire 7 L opCode_I [6:0] $end
$var wire 1 M reg_W_EN_when_zero $end
$var wire 1 ' reg_W_EN_O $end
$var wire 2 N destRegWriteSel_O [1:0] $end
$upscope $end
$scope module PCAdder $end
$var wire 32 O C_O [31:0] $end
$var wire 32 P B_I [31:0] $end
$upscope $end
$scope module R1 $end
$var wire 5 Q addrRegA_I [4:0] $end
$var wire 5 R addrRegB_I [4:0] $end
$var wire 1 # clk_I $end
$var wire 32 S destRegWrite_I [31:0] $end
$var wire 5 T destReg_I [4:0] $end
$var wire 1 % r_en_I $end
$var wire 1 ' w_en_I $end
$var reg 32 U dataRegA_O [31:0] $end
$var reg 32 V dataRegB_O [31:0] $end
$upscope $end
$scope module aluCtrl $end
$var wire 1 . Itype_I $end
$var wire 1 7 aluOp_I $end
$var wire 3 W func3_I [2:0] $end
$var wire 7 X func7_I [6:0] $end
$var reg 4 Y RtypeFunc [3:0] $end
$var reg 4 Z aluFunc_O [3:0] $end
$upscope $end
$scope module dataMemory $end
$var wire 32 [ address_I [31:0] $end
$var wire 1 # clk $end
$var wire 32 \ currMemData [31:0] $end
$var wire 3 ] memReadSel_I [2:0] $end
$var wire 1 & memWriteEn_I $end
$var wire 32 ^ wrData_I [31:0] $end
$var wire 16 _ currHalfWord [15:0] $end
$var reg 8 ` currByte [7:0] $end
$var reg 32 a reData [31:0] $end
$upscope $end
$scope module dff0 $end
$var wire 32 b D [31:0] $end
$var wire 1 # clk $end
$var wire 1 c enable $end
$var wire 1 $ reset $end
$var reg 32 d Q [31:0] $end
$upscope $end
$scope module iMem $end
$var wire 32 e instAddr_I [31:0] $end
$var wire 32 f instruction_O [31:0] $end
$upscope $end
$scope module imm $end
$var wire 32 g imm_O [31:0] $end
$var wire 32 h instruction_I [31:0] $end
$var wire 7 i opCode [6:0] $end
$var wire 3 j instSel [2:0] $end
$var reg 32 k immIntermediate [31:0] $end
$upscope $end
$upscope $end
$upscope $end
$enddefinitions $end
#0
$dumpvars
bx k
bx j
bx i
bx h
bx g
bx f
bx e
bx d
1c
bx b
bx a
bx `
bx _
b0 ^
bx ]
bx \
bx [
bx Z
bx Y
bx X
bx W
b0 V
b0 U
bx T
bx S
bx R
bx Q
bx P
bx O
bx N
xM
bx L
b0 K
b0 J
bx I
bx H
bx G
bx F
bx E
bx D
bx C
bx B
bx A
bx @
bx ?
bx >
bx =
bx <
bx ;
bx :
bx 9
bx 8
x7
x6
x5
x4
x3
bx 2
bx 1
bx 0
bx /
x.
bx -
x,
bx +
bx *
b0 )
b0 (
x'
x&
1%
1$
1#
x"
x!
$end
#5
b1000101011011110010000000000000 <
b1000101011011110010000000000000 S
04
0,
0.
1'
06
0&
1M
05
07
b11 /
b11 N
03
b101 j
b0 8
b0 G
b0 Z
b1000 Y
bx (
bx J
bx V
bx ^
bx )
bx K
bx U
b100 *
b100 b
b1000101011011110010000000000000 -
b1000101011011110010000000000000 g
b1000101011011110010000000000000 k
b110111 i
1!
b100010 X
b10 W
b110111 L
b10 ]
b10 I
b11 T
b10110 R
b11110 Q
bx =
bx 9
bx H
bx [
b1000101011011110010000110110111 2
b1000101011011110010000110110111 f
b1000101011011110010000110110111 h
0"
bx ;
bx ?
b100 0
b100 O
b0 1
b0 P
b0 d
b0 e
0$
0#
#10
1.
16
17
b0 E
b0 D
b0 C
b0 =
b0 >
b0 A
b0 9
b0 H
b0 [
b0 /
b0 N
b0 B
b0 F
b0 :
b0 @
b0 ;
b0 ?
b0 <
b0 S
b1 j
b0 Y
14
b0 (
b0 J
b0 V
b0 ^
b0 )
b0 K
b0 U
b0 -
b0 g
b0 k
b10011 i
b0 X
b0 W
b10011 L
b0 ]
b0 I
b0 R
b0 Q
b110010011 2
b110010011 f
b110010011 h
b1000 *
b1000 b
b1000 0
b1000 O
b100 1
b100 P
b100 d
b100 e
1$
1#
#15
0#
#20
b1 T
b10010011 2
b10010011 f
b10010011 h
b1100 *
b1100 b
b1100 0
b1100 O
b1000 1
b1000 P
b1000 d
b1000 e
1#
#25
0#
#30
b1 <
b1 S
b1 >
b1 A
b1 9
b1 H
b1 [
b1 B
b11111111111111111111111111111111 F
b1 :
b1 @
b1 -
b1 g
b1 k
b10 T
b1 R
b100000000000100010011 2
b100000000000100010011 f
b100000000000100010011 h
b10000 *
b10000 b
b10000 0
b10000 O
b1100 1
b1100 P
b1100 d
b1100 e
1#
#35
0#
#40
b1010 <
b1010 S
b1010 >
b1010 A
b1010 9
b1010 H
b1010 [
x4
b1010 B
b11111111111111111111111111110110 F
b1010 :
b1010 @
bx (
bx J
bx V
bx ^
b1010 -
b1010 g
b1010 k
b101 T
b1010 R
b101000000000001010010011 2
b101000000000001010010011 f
b101000000000001010010011 h
b10100 *
b10100 b
b10100 0
b10100 O
b10000 1
b10000 P
b10000 d
b10000 e
1#
#45
0#
#50
b0 <
b0 S
b0 >
b0 A
b0 9
b0 H
b0 [
14
b0 B
b0 F
b0 :
b0 @
b0 (
b0 J
b0 V
b0 ^
b0 -
b0 g
b0 k
b110 T
b0 R
b1100010011 2
b1100010011 f
b1100010011 h
b11000 *
b11000 b
b11000 0
b11000 O
b10100 1
b10100 P
b10100 d
b10100 e
1#
#55
0#
#60
b111000 <
b111000 S
b11 j
0.
15
b111000 >
b111000 A
b111000 9
b111000 H
b111000 [
0M
0'
07
13
b11000 E
b11000 D
b11000 C
b11000 ;
b11000 ?
04
b111000 B
b11111111111111111111111111111000 F
b100000 :
b100000 @
b1010 )
b1010 K
b1010 U
b100000 -
b100000 g
b100000 k
b1100011 i
b1 X
b1100011 L
b0 T
b101 Q
b10000000101000000001100011 2
b10000000101000000001100011 f
b10000000101000000001100011 h
b11100 *
b11100 b
b11100 0
b11100 O
b11000 1
b11000 P
b11000 d
b11000 e
1#
#65
0#
#70
b0 j
1'
05
06
0&
b0 =
1M
17
03
b0 :
b0 @
b1 )
b1 K
b1 U
b1 <
b1 S
b0 -
b0 g
b0 k
b110011 i
b0 X
b110011 L
b100 T
b1 R
b10 Q
b1 >
b1 A
b1 9
b1 H
b1 [
b100010000001000110011 2
b100010000001000110011 f
b100010000001000110011 h
b100000 *
b100000 b
b1 B
b1 F
b1 E
b1 D
b1 C
b1 ;
b1 ?
b100000 0
b100000 O
b11100 1
b11100 P
b11100 d
b11100 e
1#
#75
0#
#80
b0 >
b0 A
b0 9
b0 H
b0 [
bx <
bx S
b10 j
1&
b1 /
b1 N
0'
16
0M
07
b0 :
b0 @
b0 B
b0 F
b0 E
b0 D
b0 C
b0 ;
b0 ?
b0 8
b0 G
b0 Z
b1000 Y
b1 (
b1 J
b1 V
b1 ^
b0 )
b0 K
b0 U
b100011 i
b10 W
b100011 L
b10 ]
b10 I
b0 T
b100 R
b110 Q
b10000110010000000100011 2
b10000110010000000100011 f
b10000110010000000100011 h
b100100 *
b100100 b
b100100 0
b100100 O
b100000 1
b100000 P
b100000 d
b100000 e
1#
#85
0#
#90
b0 j
0&
b0 /
b0 N
1'
06
b1 >
b1 A
b1 9
b1 H
b1 [
1M
17
b1 B
b11111111111111111111111111111111 F
b1 :
b1 @
b0 Y
b1 <
b1 S
b1 _
b0 -
b0 g
b0 k
b110011 i
b0 W
b110011 L
b0 ]
b0 I
b1 T
b10 R
b0 Q
b0 +
b0 a
b0 `
b1000000000000010110011 2
b1000000000000010110011 f
b1000000000000010110011 h
b101000 *
b101000 b
b1 \
b101000 0
b101000 O
b100100 1
b100100 P
b100100 d
b100100 e
1#
#95
0#
#100
b10 T
b100 R
b10000000000000100110011 2
b10000000000000100110011 f
b10000000000000100110011 h
b101100 *
b101100 b
b101100 0
b101100 O
b101000 1
b101000 P
b101000 d
b101000 e
1#
#105
0#
#110
bx _
bx \
bx +
bx a
bx `
b100 <
b100 S
b100 -
b100 g
b100 k
1.
b100 >
b100 A
b100 9
b100 H
b100 [
b1 j
b100 B
b11111111111111111111111111111100 F
b100 :
b100 @
16
b10011 i
b10011 L
b110 T
b110 Q
b10000110000001100010011 2
b10000110000001100010011 f
b10000110000001100010011 h
b110000 *
b110000 b
b110000 0
b110000 O
b101100 1
b101100 P
b101100 d
b101100 e
1#
#115
0#
#120
bx _
bx +
bx a
bx `
bx \
b1001 <
b1001 S
x4
b1010 =
b11111111111111111111111111111111 >
b11111111111111111111111111110101 A
b1001 9
b1001 H
b1001 [
b11111111111111111111111111111111 :
b11111111111111111111111111111111 @
bx (
bx J
bx V
bx ^
b1001 B
b1011 F
b0 E
b1010 ;
b1010 ?
b11111111111111111111111111111111 -
b11111111111111111111111111111111 g
b11111111111111111111111111111111 k
b1111111 X
b101 T
b11111 R
b101 Q
b1010 )
b1010 K
b1010 U
b11111111111100101000001010010011 2
b11111111111100101000001010010011 f
b11111111111100101000001010010011 h
b110100 *
b110100 b
b110100 0
b110100 O
b110000 1
b110000 P
b110000 d
b110000 e
1#
#125
0#
#130
bx _
14
bx `
bx \
1,
0.
b111000 <
b111000 S
0M
15
07
b10 /
b10 N
13
b11 D
b11 C
b100100 =
b11111111111111111111111111110100 >
b11111111111111111111111111010000 A
b11000 9
b11000 H
b11000 [
b11111111111111111111111111100100 :
b11111111111111111111111111100100 @
b100 j
b0 8
b0 G
b0 Z
b101 Y
b0 +
b0 a
b1001 (
b1001 J
b1001 V
b1001 ^
b11000 B
b1010000 F
b1101000000 E
b110100 ;
b110100 ?
b11111111111111111111111111100100 -
b11111111111111111111111111100100 g
b11111111111111111111111111100100 k
b1101111 i
b111 W
b1101111 L
b111 ]
b111 I
b0 T
b101 R
b11111 Q
bx )
bx K
bx U
b11111110010111111111000001101111 2
b11111110010111111111000001101111 f
b11111110010111111111000001101111 h
b11000 *
b11000 b
b111000 0
b111000 O
b110100 1
b110100 P
b110100 d
b110100 e
1#
#135
0#
#140
04
0,
15
0'
b0 /
b0 N
b100000 :
b100000 @
b11 j
b0 Y
bx +
bx a
b0 (
b0 J
b0 V
b0 ^
b1001 )
b1001 K
b1001 U
b11100 *
b11100 b
b100000 -
b100000 g
b100000 k
b1100011 i
b1 X
b0 W
b1100011 L
b0 ]
b0 I
b0 R
b101 Q
b0 =
b111000 >
b111000 A
b111000 9
b111000 H
b111000 [
b10000000101000000001100011 2
b10000000101000000001100011 f
b10000000101000000001100011 h
b111000 <
b111000 S
b111000 B
b11111111111111111111111111111000 F
b11000 E
b11000 D
b11000 C
b11000 ;
b11000 ?
b11100 0
b11100 O
b11000 1
b11000 P
b11000 d
b11000 e
1#
#145
0#
#150
b0 _
b0 +
b0 a
b0 `
b1 \
b0 j
1'
05
06
0&
b1 =
1M
17
03
14
b1 :
b1 @
b1 (
b1 J
b1 V
b1 ^
b1 )
b1 K
b1 U
b10 <
b10 S
b0 -
b0 g
b0 k
b110011 i
b0 X
b110011 L
b100 T
b1 R
b10 Q
b1 >
b0 A
b10 9
b10 H
b10 [
b100010000001000110011 2
b100010000001000110011 f
b100010000001000110011 h
b100000 *
b100000 b
b10 B
b0 F
b10 E
b0 D
b0 C
b1 ;
b1 ?
b100000 0
b100000 O
b11100 1
b11100 P
b11100 d
b11100 e
1#
#155
0#
#160
bx \
b10 j
bx _
1&
b1 /
b1 N
bx `
bx <
bx S
0'
16
b0 =
b100 >
b100 A
b100 9
b100 H
b100 [
0M
07
b0 :
b0 @
b100 B
b100 F
b100 E
b100 D
b100 C
b100 ;
b100 ?
b0 8
b0 G
b0 Z
b1000 Y
bx +
bx a
04
b10 (
b10 J
b10 V
b10 ^
b100 )
b100 K
b100 U
b100011 i
b10 W
b100011 L
b10 ]
b10 I
b0 T
b100 R
b110 Q
b10000110010000000100011 2
b10000110010000000100011 f
b10000110010000000100011 h
b100100 *
b100100 b
b100100 0
b100100 O
b100000 1
b100000 P
b100000 d
b100000 e
1#
#165
0#
#170
b0 j
0&
b0 /
b0 N
1'
06
b1 >
b1 A
b1 9
b1 H
b1 [
1M
17
b0 E
b0 D
b0 C
b0 ;
b0 ?
b1 B
b11111111111111111111111111111111 F
b1 :
b1 @
b0 Y
b1 (
b1 J
b1 V
b1 ^
b0 )
b0 K
b0 U
b1 <
b1 S
b1 _
b0 -
b0 g
b0 k
b110011 i
b0 W
b110011 L
b0 ]
b0 I
b1 T
b10 R
b0 Q
b0 +
b0 a
b0 `
b1000000000000010110011 2
b1000000000000010110011 f
b1000000000000010110011 h
b101000 *
b101000 b
b1 \
b101000 0
b101000 O
b100100 1
b100100 P
b100100 d
b100100 e
1#
#175
0#
#180
b0 _
b10 <
b10 S
b10 >
b10 A
b10 9
b10 H
b10 [
b10 B
b11111111111111111111111111111110 F
b10 :
b10 @
b10 (
b10 J
b10 V
b10 ^
b10 T
b100 R
b10000000000000100110011 2
b10000000000000100110011 f
b10000000000000100110011 h
b101100 *
b101100 b
b101100 0
b101100 O
b101000 1
b101000 P
b101000 d
b101000 e
1#
#185
0#
#190
b100 =
bx +
bx a
bx _
bx `
b100 -
b100 g
b100 k
1.
b1 j
b100 :
b100 @
bx \
b1000 <
b1000 S
16
b100 >
b0 A
b1000 9
b1000 H
b1000 [
b1000 B
b0 F
b1000000 E
b0 D
b0 C
b100 ;
b100 ?
b100 )
b100 K
b100 U
b10011 i
b10011 L
b110 T
b110 Q
b10000110000001100010011 2
b10000110000001100010011 f
b10000110000001100010011 h
b110000 *
b110000 b
b110000 0
b110000 O
b101100 1
b101100 P
b101100 d
b101100 e
1#
#195
0#
#200
bx _
bx +
bx a
bx `
bx \
b1000 <
b1000 S
x4
b1001 =
b11111111111111111111111111111111 >
b11111111111111111111111111110110 A
b1000 9
b1000 H
b1000 [
b11111111111111111111111111111111 :
b11111111111111111111111111111111 @
bx (
bx J
bx V
bx ^
b1000 B
b1010 F
b10000000000000000000000000000000 E
b1001 ;
b1001 ?
b11111111111111111111111111111111 -
b11111111111111111111111111111111 g
b11111111111111111111111111111111 k
b1111111 X
b101 T
b11111 R
b101 Q
b1001 )
b1001 K
b1001 U
b11111111111100101000001010010011 2
b11111111111100101000001010010011 f
b11111111111100101000001010010011 h
b110100 *
b110100 b
b110100 0
b110100 O
b110000 1
b110000 P
b110000 d
b110000 e
1#
#205
0#
#210
bx _
14
bx `
bx \
1,
0.
b111000 <
b111000 S
0M
15
07
b10 /
b10 N
13
b11 D
b11 C
b100100 =
b11111111111111111111111111110100 >
b11111111111111111111111111010000 A
b11000 9
b11000 H
b11000 [
b11111111111111111111111111100100 :
b11111111111111111111111111100100 @
b100 j
b0 8
b0 G
b0 Z
b101 Y
b0 +
b0 a
b1000 (
b1000 J
b1000 V
b1000 ^
b11000 B
b1010000 F
b1101000000 E
b110100 ;
b110100 ?
b11111111111111111111111111100100 -
b11111111111111111111111111100100 g
b11111111111111111111111111100100 k
b1101111 i
b111 W
b1101111 L
b111 ]
b111 I
b0 T
b101 R
b11111 Q
bx )
bx K
bx U
b11111110010111111111000001101111 2
b11111110010111111111000001101111 f
b11111110010111111111000001101111 h
b11000 *
b11000 b
b111000 0
b111000 O
b110100 1
b110100 P
b110100 d
b110100 e
1#
#215
0#
#220
04
0,
15
0'
b0 /
b0 N
b100000 :
b100000 @
b11 j
b0 Y
bx +
bx a
b0 (
b0 J
b0 V
b0 ^
b1000 )
b1000 K
b1000 U
b11100 *
b11100 b
b100000 -
b100000 g
b100000 k
b1100011 i
b1 X
b0 W
b1100011 L
b0 ]
b0 I
b0 R
b101 Q
b0 =
b111000 >
b111000 A
b111000 9
b111000 H
b111000 [
b10000000101000000001100011 2
b10000000101000000001100011 f
b10000000101000000001100011 h
b111000 <
b111000 S
b111000 B
b11111111111111111111111111111000 F
b11000 E
b11000 D
b11000 C
b11000 ;
b11000 ?
b11100 0
b11100 O
b11000 1
b11000 P
b11000 d
b11000 e
1#
#225
0#
#230
b0 _
b0 +
b0 a
b0 `
b1 \
b0 j
1'
05
06
0&
b0 =
1M
17
03
b1 :
b1 @
b1 (
b1 J
b1 V
b1 ^
b10 )
b10 K
b10 U
b11 <
b11 S
b0 -
b0 g
b0 k
b110011 i
b0 X
b110011 L
b100 T
b1 R
b10 Q
b11 >
b11 A
b11 9
b11 H
b11 [
b100010000001000110011 2
b100010000001000110011 f
b100010000001000110011 h
b100000 *
b100000 b
b11 B
b1 F
b100 E
b1 D
b1 C
b10 ;
b10 ?
b100000 0
b100000 O
b11100 1
b11100 P
b11100 d
b11100 e
1#
#235
0#
#240
bx \
b10 j
bx _
1&
b1 /
b1 N
bx `
bx <
bx S
0'
16
b1000 >
b1000 A
b1000 9
b1000 H
b1000 [
0M
07
b0 :
b0 @
b1000 B
b1000 F
b1000 E
b1000 D
b1000 C
b1000 ;
b1000 ?
b0 8
b0 G
b0 Z
b1000 Y
bx +
bx a
b11 (
b11 J
b11 V
b11 ^
b1000 )
b1000 K
b1000 U
b100011 i
b10 W
b100011 L
b10 ]
b10 I
b0 T
b100 R
b110 Q
b10000110010000000100011 2
b10000110010000000100011 f
b10000110010000000100011 h
b100100 *
b100100 b
b100100 0
b100100 O
b100000 1
b100000 P
b100000 d
b100000 e
1#
#245
0#
#250
b0 j
0&
b0 /
b0 N
1'
06
b10 >
b10 A
b10 9
b10 H
b10 [
1M
17
b0 E
b0 D
b0 C
b0 ;
b0 ?
b10 B
b11111111111111111111111111111110 F
b10 :
b10 @
b0 Y
b10 (
b10 J
b10 V
b10 ^
b0 )
b0 K
b0 U
b10 <
b10 S
b0 _
b0 -
b0 g
b0 k
b110011 i
b0 W
b110011 L
b0 ]
b0 I
b1 T
b10 R
b0 Q
b0 +
b0 a
b0 `
b1000000000000010110011 2
b1000000000000010110011 f
b1000000000000010110011 h
b101000 *
b101000 b
b1 \
b101000 0
b101000 O
b100100 1
b100100 P
b100100 d
b100100 e
1#
#255
0#
#260
b11 <
b11 S
b11 >
b11 A
b11 9
b11 H
b11 [
b11 B
b11111111111111111111111111111101 F
b11 :
b11 @
b11 (
b11 J
b11 V
b11 ^
b10 T
b100 R
b10000000000000100110011 2
b10000000000000100110011 f
b10000000000000100110011 h
b101100 *
b101100 b
b101100 0
b101100 O
b101000 1
b101000 P
b101000 d
b101000 e
1#
#265
0#
#270
bx +
bx a
bx _
bx `
b100 -
b100 g
b100 k
1.
b1 j
b100 :
b100 @
bx \
b1100 <
b1100 S
16
b1100 >
b1100 A
b1100 9
b1100 H
b1100 [
b1100 B
b100 F
b10000000 E
b0 D
b0 C
b1000 ;
b1000 ?
b1000 )
b1000 K
b1000 U
b10011 i
b10011 L
b110 T
b110 Q
b10000110000001100010011 2
b10000110000001100010011 f
b10000110000001100010011 h
b110000 *
b110000 b
b110000 0
b110000 O
b101100 1
b101100 P
b101100 d
b101100 e
1#
#275
0#
#280
b0 _
b0 +
b0 a
b0 `
b10 \
b111 <
b111 S
x4
b1000 =
b11111111111111111111111111111111 >
b11111111111111111111111111110111 A
b111 9
b111 H
b111 [
b11111111111111111111111111111111 :
b11111111111111111111111111111111 @
bx (
bx J
bx V
bx ^
b111 B
b1001 F
b0 E
b1000 ;
b1000 ?
b11111111111111111111111111111111 -
b11111111111111111111111111111111 g
b11111111111111111111111111111111 k
b1111111 X
b101 T
b11111 R
b101 Q
b1000 )
b1000 K
b1000 U
b11111111111100101000001010010011 2
b11111111111100101000001010010011 f
b11111111111100101000001010010011 h
b110100 *
b110100 b
b110100 0
b110100 O
b110000 1
b110000 P
b110000 d
b110000 e
1#
#285
0#
#290
14
bx _
1,
0.
bx `
bx \
b111000 <
b111000 S
0M
15
07
b10 /
b10 N
13
b11 D
b11 C
b100100 =
b11111111111111111111111111110100 >
b11111111111111111111111111010000 A
b11000 9
b11000 H
b11000 [
b11111111111111111111111111100100 :
b11111111111111111111111111100100 @
b100 j
b0 8
b0 G
b0 Z
b101 Y
b111 (
b111 J
b111 V
b111 ^
b11000 B
b1010000 F
b1101000000 E
b110100 ;
b110100 ?
b11111111111111111111111111100100 -
b11111111111111111111111111100100 g
b11111111111111111111111111100100 k
b1101111 i
b111 W
b1101111 L
b111 ]
b111 I
b0 T
b101 R
b11111 Q
bx )
bx K
bx U
b11111110010111111111000001101111 2
b11111110010111111111000001101111 f
b11111110010111111111000001101111 h
b11000 *
b11000 b
b111000 0
b111000 O
b110100 1
b110100 P
b110100 d
b110100 e
1#
#295
0#
#300
bx _
bx `
bx \
04
0,
15
0'
b0 /
b0 N
b100000 :
b100000 @
b11 j
b0 Y
bx +
bx a
b0 (
b0 J
b0 V
b0 ^
b111 )
b111 K
b111 U
b11100 *
b11100 b
b100000 -
b100000 g
b100000 k
b1100011 i
b1 X
b0 W
b1100011 L
b0 ]
b0 I
b0 R
b101 Q
b0 =
b111000 >
b111000 A
b111000 9
b111000 H
b111000 [
b10000000101000000001100011 2
b10000000101000000001100011 f
b10000000101000000001100011 h
b111000 <
b111000 S
b111000 B
b11111111111111111111111111111000 F
b11000 E
b11000 D
b11000 C
b11000 ;
b11000 ?
b11100 0
b11100 O
b11000 1
b11000 P
b11000 d
b11000 e
1#
#305
0#
#310
b10 _
b0 +
b0 a
b0 `
b10 \
b0 j
1'
05
06
0&
b10 =
1M
17
03
b10 :
b10 @
b10 (
b10 J
b10 V
b10 ^
b11 )
b11 K
b11 U
b101 <
b101 S
b0 -
b0 g
b0 k
b110011 i
b0 X
b110011 L
b100 T
b1 R
b10 Q
b11 >
b1 A
b101 9
b101 H
b101 [
b100010000001000110011 2
b100010000001000110011 f
b100010000001000110011 h
b100000 *
b100000 b
b101 B
b1 F
b1100 E
b0 D
b0 C
b11 ;
b11 ?
b100000 0
b100000 O
b11100 1
b11100 P
b11100 d
b11100 e
1#
#315
0#
#320
bx _
b10 j
1&
b1 /
b1 N
bx `
bx \
bx <
bx S
0'
16
b0 =
b1100 >
b1100 A
b1100 9
b1100 H
b1100 [
0M
07
b0 :
b0 @
b1100 B
b1100 F
b1100 E
b1100 D
b1100 C
b1100 ;
b1100 ?
b0 8
b0 G
b0 Z
b1000 Y
bx +
bx a
b101 (
b101 J
b101 V
b101 ^
b1100 )
b1100 K
b1100 U
b100011 i
b10 W
b100011 L
b10 ]
b10 I
b0 T
b100 R
b110 Q
b10000110010000000100011 2
b10000110010000000100011 f
b10000110010000000100011 h
b100100 *
b100100 b
b100100 0
b100100 O
b100000 1
b100000 P
b100000 d
b100000 e
1#
#325
0#
#330
b0 j
0&
b0 /
b0 N
1'
06
b11 >
b11 A
b11 9
b11 H
b11 [
1M
17
b0 E
b0 D
b0 C
b0 ;
b0 ?
b11 B
b11111111111111111111111111111101 F
b11 :
b11 @
b0 Y
b11 (
b11 J
b11 V
b11 ^
b0 )
b0 K
b0 U
b11 <
b11 S
b0 _
b0 -
b0 g
b0 k
b110011 i
b0 W
b110011 L
b0 ]
b0 I
b1 T
b10 R
b0 Q
b0 +
b0 a
b0 `
b1000000000000010110011 2
b1000000000000010110011 f
b1000000000000010110011 h
b101000 *
b101000 b
b1 \
b101000 0
b101000 O
b100100 1
b100100 P
b100100 d
b100100 e
1#
#335
0#
#340
b10 _
b10 \
b101 <
b101 S
b101 >
b101 A
b101 9
b101 H
b101 [
b101 B
b11111111111111111111111111111011 F
b101 :
b101 @
b101 (
b101 J
b101 V
b101 ^
b10 T
b100 R
b10000000000000100110011 2
b10000000000000100110011 f
b10000000000000100110011 h
b101100 *
b101100 b
b101100 0
b101100 O
b101000 1
b101000 P
b101000 d
b101000 e
1#
#345
0#
#350
bx _
b100 -
b100 g
b100 k
1.
b0 D
b0 C
bx +
bx a
b1 j
b100 :
b100 @
bx `
bx \
b10000 <
b10000 S
16
b100 =
b1100 >
b1000 A
b10000 9
b10000 H
b10000 [
b10000 B
b1000 F
b11000000 E
b1100 ;
b1100 ?
b1100 )
b1100 K
b1100 U
b10011 i
b10011 L
b110 T
b110 Q
b10000110000001100010011 2
b10000110000001100010011 f
b10000110000001100010011 h
b110000 *
b110000 b
b110000 0
b110000 O
b101100 1
b101100 P
b101100 d
b101100 e
1#
#355
0#
#360
b0 _
b0 +
b0 a
b0 `
b10 \
b110 <
b110 S
x4
b111 =
b11111111111111111111111111111111 >
b11111111111111111111111111111000 A
b110 9
b110 H
b110 [
b11111111111111111111111111111111 :
b11111111111111111111111111111111 @
bx (
bx J
bx V
bx ^
b110 B
b1000 F
b10000000000000000000000000000000 E
b0 D
b0 C
b111 ;
b111 ?
b11111111111111111111111111111111 -
b11111111111111111111111111111111 g
b11111111111111111111111111111111 k
b1111111 X
b101 T
b11111 R
b101 Q
b111 )
b111 K
b111 U
b11111111111100101000001010010011 2
b11111111111100101000001010010011 f
b11111111111100101000001010010011 h
b110100 *
b110100 b
b110100 0
b110100 O
b110000 1
b110000 P
b110000 d
b110000 e
1#
#365
0#
#370
bx \
bx _
14
bx `
1,
0.
b111000 <
b111000 S
0M
15
07
b10 /
b10 N
13
b11 D
b11 C
b100100 =
b11111111111111111111111111110100 >
b11111111111111111111111111010000 A
b11000 9
b11000 H
b11000 [
b11111111111111111111111111100100 :
b11111111111111111111111111100100 @
b100 j
b0 8
b0 G
b0 Z
b101 Y
b110 (
b110 J
b110 V
b110 ^
b11000 B
b1010000 F
b1101000000 E
b110100 ;
b110100 ?
b11111111111111111111111111100100 -
b11111111111111111111111111100100 g
b11111111111111111111111111100100 k
b1101111 i
b111 W
b1101111 L
b111 ]
b111 I
b0 T
b101 R
b11111 Q
bx )
bx K
bx U
b11111110010111111111000001101111 2
b11111110010111111111000001101111 f
b11111110010111111111000001101111 h
b11000 *
b11000 b
b111000 0
b111000 O
b110100 1
b110100 P
b110100 d
b110100 e
1#
#375
0#
#380
bx _
bx `
bx \
04
0,
15
0'
b0 /
b0 N
b100000 :
b100000 @
b11 j
b0 Y
bx +
bx a
b0 (
b0 J
b0 V
b0 ^
b110 )
b110 K
b110 U
b11100 *
b11100 b
b100000 -
b100000 g
b100000 k
b1100011 i
b1 X
b0 W
b1100011 L
b0 ]
b0 I
b0 R
b101 Q
b0 =
b111000 >
b111000 A
b111000 9
b111000 H
b111000 [
b10000000101000000001100011 2
b10000000101000000001100011 f
b10000000101000000001100011 h
b111000 <
b111000 S
b111000 B
b11111111111111111111111111111000 F
b11000 E
b11000 D
b11000 C
b11000 ;
b11000 ?
b11100 0
b11100 O
b11000 1
b11000 P
b11000 d
b11000 e
1#
#385
0#
#390
b11 _
b11 +
b11 a
b11 `
b11 \
b0 j
1'
05
06
0&
b1 =
1M
17
03
b11 :
b11 @
b11 (
b11 J
b11 V
b11 ^
b101 )
b101 K
b101 U
b1000 <
b1000 S
b0 -
b0 g
b0 k
b110011 i
b0 X
b110011 L
b100 T
b1 R
b10 Q
b111 >
b110 A
b1000 9
b1000 H
b1000 [
b100010000001000110011 2
b100010000001000110011 f
b100010000001000110011 h
b100000 *
b100000 b
b1000 B
b10 F
b101000 E
b0 D
b0 C
b101 ;
b101 ?
b100000 0
b100000 O
b11100 1
b11100 P
b11100 d
b11100 e
1#
#395
0#
